…
clean_df %>% 
  count(snow, name = "n_obs") %>% 
  arrange(desc(n_obs))
```

    ## # A tibble: 282 × 2
    ##     snow   n_obs
    ##    <dbl>   <int>
    ##  1   0   2008508
    ##  2  NA    381221
    ##  3   2.5   31022
    ##  4   1.3   23095
    ##  5   5.1   18274
    ##  6   7.6   10173
    ##  7   0.8    9962
    ##  8   0.5    9748
    ##  9   3.8    9197
    ## 10   0.3    8790
    ## # ℹ 272 more rows
…
